pid,bid,relevant_tests,all_relevant_test
Chart,200157,2398,2191
Chart,200158,2398,2191
Chart,200323,2398,2191
Chart,200324,2398,2191
Chart,400483,44212,44214
Chart,500080,512,514
Chart,500081,512,514
Chart,500088,509,511
Chart,600007,1301,1153
Chart,600008,1301,1153
Chart,900248,2441,2294
Chart,900251,2285,2287
Chart,1400231,10888,10890
Chart,1400264,10888,10890
Chart,1400751,10888,10890
Chart,1400778,10888,10890
Chart,1500082,21358,21245
Chart,1500110,21358,21245
Chart,1600044,544,546
Chart,1800107,693,546
Chart,1800108,693,546
Chart,1800113,541,543
Chart,1900077,8118,8120
Chart,1900112,8118,8120
Chart,2100073,1060,916
Chart,2100074,1057,913
Chart,2100082,1060,916
Chart,2100085,909,911
Chart,2200039,376,378
Chart,2200073,520,376
Chart,2200076,379,381
Chart,2200081,376,378
Chart,2200088,376,378
Chart,2200102,376,378
Chart,2300012,7405,7407
Chart,2300014,7538,7408
Chart,2300015,7538,7408
Chart,2300017,7538,7408
Chart,2300018,7538,7408
Chart,2500004,18718,18720
Chart,2500007,18718,18720
Chart,2500011,18718,18720
Chart,2500014,18718,18720
Chart,2600120,37181,37183
Closure,1,46065,45870
Closure,2,26763,26353
Closure,3,30549,30217
Closure,4,27520,27118
Closure,5,26275,25890
Closure,6,27258,26857
Closure,7,21274,20830
Closure,8,24477,24086
Closure,10,25628,25244
Closure,11,26275,25868
Closure,12,29729,29401
Closure,13,40981,40773
Closure,14,29434,29079
Closure,15,29124,28788
Closure,16,32982,32677
Closure,17,26004,25593
Closure,18,29476,29119
Closure,19,25775,25360
Closure,20,26482,26115
Closure,21,25491,25098
Closure,22,25516,25123
Closure,25,25605,25192
Closure,26,42147,41930
Closure,28,26862,26489
Closure,29,45734,45580
Closure,30,28722,28386
Closure,31,28291,27865
Closure,32,28728,28376
Closure,33,25705,25303
Closure,34,6811,6303
Closure,35,25556,25156
Closure,36,43634,43459
Closure,37,28345,27948
Closure,38,20547,20117
Closure,39,5026,4504
Closure,40,29798,29465
Closure,41,25038,24641
Closure,42,6382,5864
Closure,43,25001,24604
Closure,44,19803,19387
Closure,46,5097,4592
Closure,47,28076,27676
Closure,48,24091,23696
Closure,49,29824,29475
Closure,51,20668,20254
Closure,52,20648,20234
Closure,54,30851,30518
Closure,56,18804,18402
Closure,57,18642,18235
Closure,59,41685,41514
Closure,60,45803,45643
Closure,61,23545,23190
Closure,64,38796,38584
Closure,65,20139,19743
Closure,66,24586,24219
Closure,68,8831,8360
Closure,69,24827,24460
Closure,70,25528,25175
Closure,71,25014,24694
Closure,72,25551,25229
Closure,73,19596,19209
Closure,75,23114,22774
Closure,77,19290,18953
Closure,79,22529,22200
Closure,80,17015,16671
Closure,81,6723,6317
Closure,82,23047,22748
Closure,84,6617,6220
Closure,86,28153,27871
Closure,89,26210,25906
Closure,90,22930,22635
Closure,91,22985,22639
Closure,92,20419,20084
Closure,93,20392,20057
Closure,94,21188,20855
Closure,95,26754,26480
Closure,96,22103,21824
Closure,97,20384,20068
Closure,98,23040,22667
Closure,99,19058,18673
Closure,102,38693,38573
Closure,103,27255,26926
Closure,104,4176,3737
Closure,106,19678,19331
Closure,108,31515,31063
Closure,109,9694,9070
Closure,110,31334,30886
Closure,111,23382,22880
Closure,112,28790,28324
Closure,113,25263,24812
Closure,114,29332,28904
Closure,115,30074,29650
Closure,116,34440,34020
Closure,117,28649,28183
Closure,118,34051,33642
Closure,119,30576,30133
Closure,120,28090,27653
Closure,121,28099,27662
Closure,122,7846,7228
Closure,123,23028,22535
Closure,124,26553,26104
Closure,125,27628,27163
Closure,126,24917,24519
Closure,128,21469,21023
Closure,129,42815,42592
Closure,130,30396,30017
Closure,131,25786,25383
Closure,132,26527,26128
Closure,133,9677,9139
Closure,100127,46069,45874
Closure,100128,46069,45874
Closure,100129,46067,45872
Closure,200620,26767,26357
Closure,200621,26764,26354
Closure,300031,30557,30225
Closure,300032,30557,30225
Closure,300112,30555,30223
Closure,300113,30554,30222
Closure,300114,30552,30220
Closure,300115,30556,30224
Closure,400024,27521,27119
Closure,400025,27521,27119
Closure,400032,27521,27119
Closure,500041,26279,25894
Closure,500042,26279,25894
Closure,500043,26278,25893
Closure,600101,27232,26831
Closure,600105,27231,26830
Closure,600106,27232,26831
Closure,700063,21275,20831
Closure,700064,21275,20831
Closure,700065,21273,20829
Closure,700066,21273,20829
Closure,800061,24482,24091
Closure,800062,24482,24091
Closure,800063,24481,24090
Closure,800064,24477,24086
Closure,800065,24477,24086
Closure,800066,24481,24090
Closure,800067,24473,24082
Closure,800068,24478,24087
Closure,800069,24472,24081
Closure,800070,24469,24078
Closure,800071,24478,24087
Closure,800072,24469,24078
Closure,800073,24482,24091
Closure,1000477,25628,25244
Closure,1100637,26269,25862
Closure,1100638,26269,25862
Closure,1200020,29731,29403
Closure,1200021,29734,29406
Closure,1200022,29732,29404
Closure,1300036,40980,40772
Closure,1400295,29433,29078
Closure,1500007,29128,28792
Closure,1500008,29128,28792
Closure,1500009,29127,28791
Closure,1600036,32985,32680
Closure,1600038,32985,32680
Closure,1600039,32985,32680
Closure,1600040,32985,32680
Closure,1600207,32985,32680
Closure,1700518,26010,25599
Closure,1700519,26011,25600
Closure,1700520,26010,25599
Closure,1700521,26009,25598
Closure,1700522,26008,25597
Closure,1700523,26011,25600
Closure,1700524,26010,25599
Closure,1700525,26009,25598
Closure,1700526,26008,25597
Closure,1800259,29475,29118
Closure,1800260,29475,29118
Closure,1900023,25775,25360
Closure,2000081,26491,26124
Closure,2000082,26486,26119
Closure,2000083,26486,26119
Closure,2000084,26484,26117
Closure,2000085,26487,26120
Closure,2000086,26483,26116
Closure,2100013,25439,25046
Closure,2100014,25439,25046
Closure,2100015,25440,25047
Closure,2100024,25440,25047
Closure,2100025,25437,25044
Closure,2100026,25437,25044
Closure,2100027,25438,25045
Closure,2100028,25440,25047
Closure,2100029,25436,25043
Closure,2100030,25435,25042
Closure,2100031,25437,25044
Closure,2200013,25437,25044
Closure,2200014,25437,25044
Closure,2200015,25438,25045
Closure,2200017,25439,25046
Closure,2200018,25438,25045
Closure,2200019,25437,25044
Closure,2200020,25436,25043
Closure,2300761,25173,25175
Closure,2300762,25174,25176
Closure,2300763,25174,25176
Closure,2400079,22272,21869
Closure,2400081,21865,21867
Closure,2400089,21871,21873
Closure,2400090,21871,21873
Closure,2400092,21870,21872
Closure,2500549,25602,25189
Closure,2500551,25602,25189
Closure,2500569,25602,25189
Closure,2500571,25602,25189
Closure,2600021,42151,41934
Closure,2600068,42153,41936
Closure,2600069,42153,41936
Closure,2600070,42151,41934
Closure,2600078,42151,41934
Closure,2800025,26862,26489
Closure,2900028,45742,45588
Closure,2900041,45742,45588
Closure,2900042,45744,45590
Closure,2900043,45744,45590
Closure,2900044,45744,45590
Closure,2900045,45744,45590
Closure,2900046,45742,45588
Closure,2900047,45743,45589
Closure,2900060,45742,45588
Closure,3000004,28726,28390
Closure,3000098,28727,28391
Closure,3000099,28727,28391
Closure,3000101,28728,28392
Closure,3000102,28726,28390
Closure,3000103,28724,28388
Closure,3000114,28727,28391
Closure,3000115,28727,28391
Closure,3000116,28726,28390
Closure,3000143,28725,28389
Closure,3100236,28286,27860
Closure,3100237,28286,27860
Closure,3200568,28766,28414
Closure,3200569,28766,28414
Closure,3200570,28766,28414
Closure,3200571,28766,28414
Closure,3200572,28766,28414
Closure,3200573,28766,28414
Closure,3200574,28759,28407
Closure,3200581,28766,28414
Closure,3200582,28766,28414
Closure,3200583,28763,28411
Closure,3200589,28766,28414
Closure,3200590,28767,28415
Closure,3200591,28767,28415
Closure,3200592,28766,28414
Closure,3200593,28766,28414
Closure,3200594,28766,28414
Closure,3200595,28759,28407
Closure,3200596,28761,28409
Closure,3200597,28766,28414
Closure,3200598,28766,28414
Closure,3200599,28766,28414
Closure,3200600,28766,28414
Closure,3200601,28766,28414
Closure,3200602,28766,28414
Closure,3200603,28766,28414
Closure,3200604,28765,28413
Closure,3200605,28766,28414
Closure,3200606,28764,28412
Closure,3200607,28765,28413
Closure,3200635,28765,28413
Closure,3300231,25709,25307
Closure,3300232,25709,25307
Closure,3300233,25707,25305
Closure,3400052,6818,6310
Closure,3400053,6818,6310
Closure,3400054,6818,6310
Closure,3400055,6818,6310
Closure,3400056,6818,6310
Closure,3400057,6818,6310
Closure,3400058,6811,6303
Closure,3400601,6818,6310
Closure,3400602,6816,6308
Closure,3401068,6818,6310
Closure,3401069,6818,6310
Closure,3401070,6818,6310
Closure,3401071,6818,6310
Closure,3401072,6814,6306
Closure,3401073,6809,6301
Closure,3401074,6809,6301
Closure,3500574,25545,25145
Closure,3500575,25542,25142
Closure,3600284,43638,43463
Closure,3600285,43636,43461
Closure,3700114,28349,27952
Closure,3700115,28345,27948
Closure,3700445,28350,27953
Closure,3700446,28350,27953
Closure,3700447,28348,27951
Closure,3800113,20547,20117
Closure,3800114,20547,20117
Closure,3800115,20542,20112
Closure,3800116,20551,20121
Closure,3800117,20551,20121
Closure,3800118,20549,20119
Closure,3800119,20550,20120
Closure,3800120,20538,20108
Closure,3800121,20544,20114
Closure,3900157,5030,4508
Closure,3900159,5031,4509
Closure,3900160,5029,4507
Closure,3900161,5030,4508
Closure,3900162,5027,4505
Closure,3900163,5026,4504
Closure,3900164,5027,4505
Closure,4000121,29797,29464
Closure,4100185,25049,24652
Closure,4100186,25048,24651
Closure,4100188,25044,24647
Closure,4100190,25043,24646
Closure,4100191,25047,24650
Closure,4200207,6392,5874
Closure,4200208,6392,5874
Closure,4200209,6386,5868
Closure,4300131,25023,24626
Closure,4300132,25022,24625
Closure,4300133,25019,24622
Closure,4300134,25019,24622
Closure,4300135,25018,24621
Closure,4300136,25023,24626
Closure,4300137,25022,24625
Closure,4300138,25016,24619
Closure,4300139,25018,24621
Closure,4300140,25014,24617
Closure,4300141,25022,24625
Closure,4300155,25022,24625
Closure,4300156,25023,24626
Closure,4300158,25022,24625
Closure,4300159,25020,24623
Closure,4300161,25018,24621
Closure,4300162,25025,24628
Closure,4300163,25022,24625
Closure,4300164,25022,24625
Closure,4400061,19815,19399
Closure,4400062,19815,19399
Closure,4400063,19813,19397
Closure,4400064,19815,19399
Closure,4400065,19815,19399
Closure,4400066,19813,19397
Closure,4400067,19814,19398
Closure,4400068,19808,19392
Closure,4400069,19808,19392
Closure,4400070,19808,19392
Closure,4400071,19813,19397
Closure,4500300,23646,23648
Closure,4500301,23646,23648
Closure,4500306,24004,23644
Closure,4500308,23640,23642
Closure,4700232,28100,27700
Closure,4700233,28100,27700
Closure,4700234,28100,27700
Closure,4700235,28100,27700
Closure,4700236,28100,27700
Closure,4700237,28100,27700
Closure,4700238,28100,27700
Closure,4700239,28100,27700
Closure,4700240,28100,27700
Closure,4700241,28100,27700
Closure,4700242,28100,27700
Closure,4700243,28100,27700
Closure,4700316,28100,27700
Closure,4700317,28100,27700
Closure,4700318,28096,27696
Closure,4700319,28096,27696
Closure,4700320,28099,27699
Closure,4700321,28100,27700
Closure,4700322,28100,27700
Closure,4700323,28097,27697
Closure,4700324,28100,27700
Closure,4700325,28100,27700
Closure,4700326,28100,27700
Closure,4700327,28100,27700
Closure,4700328,28095,27695
Closure,4800617,24091,23696
Closure,4800618,24088,23693
Closure,4800619,24091,23696
Closure,4800620,24086,23691
Closure,4800621,24088,23693
Closure,4800622,24085,23690
Closure,4800623,24094,23699
Closure,4800624,24092,23697
Closure,4800625,24090,23695
Closure,4800626,24090,23695
Closure,4800627,24090,23695
Closure,4800628,24089,23694
Closure,4800629,24092,23697
Closure,4800630,24090,23695
Closure,4900013,29826,29477
Closure,4900014,29826,29477
Closure,4900033,29825,29476
Closure,4900034,29825,29476
Closure,4900035,29825,29476
Closure,4900036,29825,29476
Closure,4900037,29825,29476
Closure,4900038,29825,29476
Closure,4900039,29825,29476
Closure,4900040,29825,29476
Closure,4900054,29825,29476
Closure,4900056,29825,29476
Closure,5000206,24675,24304
Closure,5000209,24300,24302
Closure,5000217,24675,24304
Closure,5000220,24673,24302
Closure,5000222,24668,24297
Closure,5000226,24292,24294
Closure,5100109,20672,20258
Closure,5100110,20670,20256
Closure,5100111,20668,20254
Closure,5100112,20668,20254
Closure,5100113,20667,20253
Closure,5200559,20657,20243
Closure,5200560,20657,20243
Closure,5200561,20657,20243
Closure,5200562,20653,20239
Closure,5200563,20657,20243
Closure,5200564,20657,20243
Closure,5200565,20657,20243
Closure,5200566,20653,20239
Closure,5200567,20656,20242
Closure,5200568,20644,20230
Closure,5200569,20648,20234
Closure,5200570,20648,20234
Closure,5300122,24518,24520
Closure,5300123,24518,24520
Closure,5400077,30864,30531
Closure,5400078,30861,30528
Closure,5400079,30862,30529
Closure,5400080,30864,30531
Closure,5400081,30857,30524
Closure,5400082,30858,30525
Closure,5400083,30864,30531
Closure,5400084,30861,30528
Closure,5400086,30856,30523
Closure,5400092,30864,30531
Closure,5400997,30864,30531
Closure,5400998,30860,30527
Closure,5400999,30865,30532
Closure,5401000,30863,30530
Closure,5401001,30855,30522
Closure,5401002,30858,30525
Closure,5401003,30864,30531
Closure,5401004,30866,30533
Closure,5600037,18808,18406
Closure,5600038,18808,18406
Closure,5600039,18807,18405
Closure,5700073,18649,18242
Closure,5700074,18649,18242
Closure,5700075,18647,18240
Closure,5700076,18648,18241
Closure,5700077,18644,18237
Closure,5700078,18642,18235
Closure,5700079,18644,18237
Closure,5800042,21088,21090
Closure,5900024,41686,41515
Closure,5900025,41685,41514
Closure,5900026,41685,41514
Closure,6000021,45806,45646
Closure,6000034,45808,45648
Closure,6000035,45808,45648
Closure,6000037,45806,45646
Closure,6100373,23553,23198
Closure,6100374,23553,23198
Closure,6100375,23553,23198
Closure,6100376,23552,23197
Closure,6100377,23553,23198
Closure,6100378,23553,23198
Closure,6100379,23553,23198
Closure,6200022,789,309
Closure,6200025,302,304
Closure,6400256,38804,38592
Closure,6400257,38804,38592
Closure,6400258,38804,38592
Closure,6400259,38800,38588
Closure,6400284,38804,38592
Closure,6400285,38800,38588
Closure,6400286,38799,38587
Closure,6400287,38800,38588
Closure,6400288,38798,38586
Closure,6500715,20137,19741
Closure,6500716,20138,19742
Closure,6600101,24588,24221
Closure,6600102,24586,24219
Closure,6700148,23370,23014
Closure,6700150,23372,23016
Closure,6700152,23363,23007
Closure,6700156,23372,23016
Closure,6700158,23000,23002
Closure,6800409,8832,8361
Closure,6800721,8832,8361
Closure,6800753,8832,8361
Closure,6900581,24847,24480
Closure,6900582,24846,24479
Closure,6900583,24846,24479
Closure,6900584,24849,24482
Closure,6900585,24843,24476
Closure,6900586,24846,24479
Closure,6900587,24842,24475
Closure,6900588,24850,24483
Closure,6900589,24850,24483
Closure,6900590,24848,24481
Closure,6900591,24843,24476
Closure,6900592,24841,24474
Closure,6900593,24849,24482
Closure,6900594,24831,24464
Closure,6900595,24836,24469
Closure,6900596,24838,24471
Closure,6900597,24849,24482
Closure,7000797,25528,25175
Closure,7000798,25526,25173
Closure,7100162,25015,24695
Closure,7100163,25013,24693
Closure,7100164,25014,24694
Closure,7100165,25008,24688
Closure,7100166,25010,24690
Closure,7100167,25015,24695
Closure,7100168,25003,24683
Closure,7100169,25003,24683
Closure,7200034,25555,25233
Closure,7200035,25553,25231
Closure,7200177,25553,25231
Closure,7200178,25553,25231
Closure,7200179,25554,25232
Closure,7300878,19596,19209
Closure,7300879,19596,19209
Closure,7300880,19596,19209
Closure,7300882,19592,19205
Closure,7300883,19596,19209
Closure,7300884,19596,19209
Closure,7300885,19596,19209
Closure,7300886,19596,19209
Closure,7300887,19592,19205
Closure,7300889,19585,19198
Closure,7300890,19587,19200
Closure,7300891,19587,19200
Closure,7400575,23340,23342
Closure,7500107,23117,22777
Closure,7500108,23117,22777
Closure,7600123,22344,22346
Closure,7600125,22344,22346
Closure,7600127,22637,22344
Closure,7600128,22637,22344
Closure,7600130,22339,22341
Closure,7600144,22343,22345
Closure,7700699,19291,18954
Closure,7700700,19292,18955
Closure,7900014,22529,22200
Closure,7900344,22529,22200
Closure,8100225,6733,6327
Closure,8100226,6732,6326
Closure,8100227,6732,6326
Closure,8100228,6732,6326
Closure,8100229,6727,6321
Closure,8200013,23048,22749
Closure,8200014,23048,22749
Closure,8200015,23049,22750
Closure,8200016,23048,22749
Closure,8200017,23044,22745
Closure,8200018,23045,22746
Closure,8200019,23052,22753
Closure,8200021,23047,22748
Closure,8200022,23040,22741
Closure,8200023,23040,22741
Closure,8400147,6647,6250
Closure,8400148,6649,6252
Closure,8400149,6649,6252
Closure,8400150,6643,6246
Closure,8400381,6648,6251
Closure,8400382,6648,6251
Closure,8400383,6648,6251
Closure,8400384,6648,6251
Closure,8400385,6641,6244
Closure,8400386,6649,6252
Closure,8400387,6648,6251
Closure,8400388,6646,6249
Closure,8400395,6648,6251
Closure,8400396,6648,6251
Closure,8500053,20779,20482
Closure,8500055,20777,20480
Closure,8500057,20772,20475
Closure,8500060,20481,20483
Closure,8600861,28153,27871
Closure,8700262,20251,20253
Closure,8700263,20251,20253
Closure,8700267,20251,20253
Closure,8700270,20572,20251
Closure,8700272,20246,20248
Closure,8800142,36182,36184
Closure,8900395,26214,25910
Closure,8900396,26214,25910
Closure,8900397,26214,25910
Closure,8900398,26212,25908
Closure,8900678,26214,25910
Closure,8900679,26212,25908
Closure,8900680,26209,25905
Closure,8900681,26207,25903
Closure,8900682,26213,25909
Closure,9000351,22931,22636
Closure,9000399,22933,22638
Closure,9000400,22933,22638
Closure,9100045,23000,22654
Closure,9100046,23002,22656
Closure,9100047,23000,22654
Closure,9100048,23001,22655
Closure,9100049,23000,22654
Closure,9100050,22996,22650
Closure,9100051,22996,22650
Closure,9100052,23000,22654
Closure,9100053,22993,22647
Closure,9100054,22996,22650
Closure,9100055,22993,22647
Closure,9100056,23001,22655
Closure,9200386,20420,20085
Closure,9300386,20393,20058
Closure,9400077,21189,20856
Closure,9400078,21189,20856
Closure,9500518,26768,26494
Closure,9500520,26764,26490
Closure,9500523,26769,26495
Closure,9500524,26762,26488
Closure,9500527,26769,26495
Closure,9500528,26770,26496
Closure,9500529,26770,26496
Closure,9500530,26769,26495
Closure,9600526,22114,21835
Closure,9600527,22113,21834
Closure,9600528,22110,21831
Closure,9600529,22109,21830
Closure,9600531,22105,21826
Closure,9600532,22110,21831
Closure,9600533,22106,21827
Closure,9600534,22113,21834
Closure,9600535,22102,21823
Closure,9600536,22101,21822
Closure,9600537,22110,21831
Closure,9600538,22115,21836
Closure,9600539,22115,21836
Closure,9700331,20388,20072
Closure,9700332,20388,20072
Closure,9700333,20388,20072
Closure,9700334,20388,20072
Closure,9700335,20388,20072
Closure,9800110,23070,22697
Closure,9800111,23071,22698
Closure,9800112,23072,22699
Closure,9800113,23072,22699
Closure,9800114,23070,22697
Closure,9800115,23072,22699
Closure,9800116,23072,22699
Closure,9800117,23071,22698
Closure,9800226,23071,22698
Closure,9800227,23069,22696
Closure,9800228,23072,22699
Closure,9800229,23071,22698
Closure,9800230,23071,22698
Closure,9800231,23071,22698
Closure,9800232,23071,22698
Closure,9800233,23062,22689
Closure,9800234,23071,22698
Closure,9800235,23071,22698
Closure,9800236,23069,22696
Closure,9800237,23064,22691
Closure,9800238,23055,22682
Closure,9900007,19067,18682
Closure,9900008,19063,18678
Closure,9900009,19063,18678
Closure,9900010,19063,18678
Closure,9900011,19059,18674
Closure,9900012,19063,18678
Closure,9900013,19055,18670
Closure,9900014,19066,18681
Closure,9900015,19053,18668
Closure,9900016,19062,18677
Closure,9900049,19068,18683
Closure,9900050,19068,18683
Closure,9900055,19066,18681
Closure,9900056,19067,18682
Closure,9900057,19065,18680
Closure,9900058,19066,18681
Closure,9900059,19062,18677
Closure,9900060,19062,18677
Closure,9900061,19062,18677
Closure,10000016,19029,18632
Closure,10000018,19029,18632
Closure,10000021,19022,18625
Closure,10000023,19029,18632
Closure,10000026,19015,18618
Closure,10000028,19029,18632
Closure,10000031,19010,18613
Closure,10300581,26934,26936
Closure,10300583,27263,26934
Closure,10300585,26930,26932
Closure,10400053,4178,3739
Closure,10400054,4178,3739
Closure,10500983,21146,21148
Closure,10500987,21146,21148
Closure,10500993,21146,21148
Closure,10600374,19681,19334
Closure,10600375,19679,19332
Closure,10600456,19679,19332
Closure,10600457,19677,19330
Closure,10800062,31521,31069
Closure,10800157,31521,31069
Closure,10800252,31522,31070
Closure,10800253,31521,31069
Closure,10800254,31520,31068
Closure,10800255,31518,31066
Closure,10800256,31519,31067
Closure,10900902,9698,9074
Closure,10900903,9695,9071
Closure,10900904,9695,9071
Closure,11001066,31352,30904
Closure,11001080,31350,30902
Closure,11001081,31350,30902
Closure,11001082,31351,30903
Closure,11001083,31352,30904
Closure,11001093,31353,30905
Closure,11001094,31353,30905
Closure,11001095,31351,30903
Closure,11001096,31351,30903
Closure,11001097,31351,30903
Closure,11001098,31351,30903
Closure,11001099,31354,30906
Closure,11001100,31351,30903
Closure,11001101,31351,30903
Closure,11001108,31353,30905
Closure,11001109,31353,30905
Closure,11001110,31351,30903
Closure,11100001,23381,22879
Closure,11200599,28790,28324
Closure,11300129,25267,24816
Closure,11300130,25266,24815
Closure,11300131,25263,24812
Closure,11300132,25265,24814
Closure,11400097,29337,28909
Closure,11400098,29336,28908
Closure,11400099,29335,28907
Closure,11400100,29333,28905
Closure,11600211,34454,34034
Closure,11600212,34454,34034
Closure,11600213,34452,34032
Closure,11600214,34454,34034
Closure,11600215,34452,34032
Closure,11600234,34452,34032
Closure,11600235,34452,34032
Closure,11600236,34451,34031
Closure,11600237,34451,34031
Closure,11600238,34452,34032
Closure,11700211,28648,28182
Closure,11700212,28650,28184
Closure,11700214,28648,28182
Closure,11700215,28651,28185
Closure,11700216,28648,28182
Closure,11700217,28649,28183
Closure,11700218,28649,28183
Closure,11700219,28648,28182
Closure,11700220,28644,28178
Closure,11700221,28644,28178
Closure,11700222,28644,28178
Closure,11700224,28641,28175
Closure,11700225,28645,28179
Closure,11700226,28642,28176
Closure,11700227,28648,28182
Closure,11700254,28648,28182
Closure,11800129,34055,33646
Closure,11800130,34055,33646
Closure,11800131,34053,33644
Closure,12000125,28094,27657
Closure,12000126,28092,27655
Closure,12100136,28106,27669
Closure,12100137,28104,27667
Closure,12100138,28103,27666
Closure,12100139,28103,27666
Closure,12100140,28106,27669
Closure,12100141,28100,27663
Closure,12100142,28099,27662
Closure,12100143,28106,27669
Closure,12100144,28096,27659
Closure,12100145,28103,27666
Closure,12100146,28095,27658
Closure,12100147,28103,27666
Closure,12100148,28104,27667
Closure,12100149,28106,27669
Closure,12100150,28090,27653
Closure,12100151,28099,27662
Closure,12100152,28091,27654
Closure,12200049,7834,7216
Closure,12200050,7834,7216
Closure,12300193,23027,22534
Closure,12500644,27632,27167
Closure,12500645,27631,27166
Closure,12500646,27630,27165
Closure,12500647,27628,27163
Closure,12500648,27629,27164
Closure,12700049,25448,25078
Closure,12700051,25074,25076
Closure,12700055,25448,25078
Closure,12700058,25074,25076
Closure,12700060,25077,25079
Closure,12700061,25077,25079
Closure,12800634,21475,21029
Closure,12800635,21475,21029
Closure,12800636,21475,21029
Closure,12800637,21473,21027
Closure,12800645,21475,21029
Closure,12800646,21475,21029
Closure,12800647,21475,21029
Closure,12800648,21471,21025
Closure,12800649,21475,21029
Closure,12800650,21475,21029
Closure,12800651,21475,21029
Closure,12800652,21471,21025
Closure,12800653,21474,21028
Closure,12800654,21466,21020
Closure,12800655,21466,21020
Closure,12800656,21462,21016
Closure,13000018,30400,30021
Closure,13000019,30400,30021
Closure,13000020,30400,30021
Closure,13000021,30396,30017
Closure,13000022,30392,30013
Closure,13000023,30391,30012
Closure,13000024,30396,30017
Closure,13000025,30400,30021
Closure,13000026,30400,30021
Closure,13000027,30400,30021
Closure,13000028,30396,30017
Closure,13000029,30399,30020
Closure,13000030,30383,30004
Closure,13000031,30391,30012
Closure,13000032,30387,30008
Closure,13000033,30400,30021
Closure,13000034,30396,30017
Closure,13000035,30376,29997
Closure,13000036,30378,29999
Closure,13100059,25794,25391
Closure,13100060,25794,25391
Closure,13100062,25790,25387
Closure,13100063,25794,25391
Closure,13100064,25794,25391
Closure,13100065,25793,25390
Closure,13100066,25785,25382
Closure,13100068,25794,25391
Closure,13100069,25794,25391
Closure,13100070,25793,25390
Closure,13100071,25788,25385
Closure,13100072,25781,25378
Closure,13100078,25792,25389
Closure,13100079,25792,25389
Closure,13200410,26536,26137
Closure,13200411,26536,26137
Closure,13200417,26532,26133
Closure,13200418,26125,26127
Closure,13301153,9677,9139
Lang,53,587,561
Lang,100065,4739,4741
Lang,100076,4760,4737
Lang,100080,4760,4737
Lang,100082,4762,4739
Lang,100084,4753,4730
Lang,100089,4721,4723
Lang,100095,4760,4737
Lang,100099,4760,4737
Lang,100102,4762,4739
Lang,100103,4753,4730
Lang,100108,4721,4723
Lang,200004,221,223
Lang,200005,221,223
Lang,300203,4743,4720
Lang,300220,4743,4720
Lang,500013,217,219
Lang,500018,215,217
Lang,500025,216,218
Lang,500029,215,217
Lang,500038,215,217
Lang,500042,215,217
Lang,700054,4924,4901
Lang,700057,4919,4896
Lang,700060,4891,4893
Lang,700210,4904,4906
Lang,1100043,216,218
Lang,1200023,235,212
Lang,1200037,212,214
Lang,1500111,5521,5523
Lang,1500112,5521,5523
Lang,1600055,4738,4715
Lang,1600058,4733,4710
Lang,1600061,4705,4707
Lang,1800057,1122,1124
Lang,1900002,257,235
Lang,1900011,251,229
Lang,1900013,244,222
Lang,1900021,251,229
Lang,1900023,233,211
Lang,1900047,257,235
Lang,1900050,257,235
Lang,1900053,257,235
Lang,1900054,250,228
Lang,1900059,257,235
Lang,1900062,250,228
Lang,1900066,236,214
Lang,1900068,257,235
Lang,1900070,250,228
Lang,1900074,222,200
Lang,1900101,257,235
Lang,1900111,259,237
Lang,2100029,776,755
Lang,2100030,776,755
Lang,2100031,769,748
Lang,2100032,776,755
Lang,2100033,762,741
Lang,2100036,776,755
Lang,2100037,755,734
Lang,2100039,776,755
Lang,2100040,748,727
Lang,2100042,776,755
Lang,2100043,741,720
Lang,2100045,776,755
Lang,2100046,734,713
Lang,2100048,778,757
Lang,2200426,984,986
Lang,2200430,984,986
Lang,2300047,795,773
Lang,2300048,795,773
Lang,2300050,771,773
Lang,2300052,771,773
Lang,2300053,771,773
Lang,2400611,4296,4273
Lang,2700077,4543,4520
Lang,2700080,4514,4515
Lang,2700087,4520,4522
Lang,2800050,179,157
Lang,3000358,6112,6099
Lang,3000359,6112,6099
Lang,3000360,6105,6092
Lang,3000361,6088,6090
Lang,3000376,6087,6089
Lang,3000413,6100,6102
Lang,3000414,6100,6102
Lang,3000416,6099,6101
Lang,3000453,6112,6099
Lang,3000454,6112,6099
Lang,3000455,6105,6092
Lang,3000457,6088,6090
Lang,3000473,6087,6089
Lang,3000493,6106,6093
Lang,3000495,6089,6091
Lang,3000505,6110,6097
Lang,3000506,6093,6095
Lang,3000509,6115,6102
Lang,3000510,6115,6102
Lang,3000568,6100,6102
Lang,3000569,6100,6102
Lang,3000571,6099,6101
Lang,3100379,5961,5948
Lang,3100380,5961,5948
Lang,3100381,5954,5941
Lang,3100383,5961,5948
Lang,3100385,5947,5934
Lang,3100388,5927,5929
Lang,3200004,3169,3157
Lang,3200056,3157,3159
Lang,3200061,3156,3158
Lang,3300331,3316,3303
Lang,3400009,1151,1131
Lang,3600085,4292,4270
Lang,3600575,4270,4272
Lang,3600576,4269,4271
Lang,3701758,2540,2527
Lang,3901264,3007,2985
Lang,4000269,2952,2954
Lang,4100038,514,516
Lang,4100042,534,512
Lang,4100049,534,512
Lang,4100056,530,508
Lang,4100058,499,501
Lang,4100067,515,517
Lang,4100068,515,517
Lang,4100086,538,516
Lang,4100090,534,512
Lang,4100094,507,509
Lang,4100100,534,512
Lang,4100106,534,512
Lang,4100113,530,508
Lang,4100115,499,501
Lang,4200192,1459,1437
Lang,4200198,1454,1432
Lang,4200200,1450,1428
Lang,4200202,1419,1421
Lang,4200212,1432,1434
Lang,4400012,688,654
Lang,4400016,648,650
Lang,4500238,3359,3361
Lang,4600065,327,329
Lang,4600066,327,329
Lang,4700451,2551,2553
Lang,4700485,2551,2553
Lang,4900343,965,967
Lang,5000019,975,977
Lang,5000029,975,977
Lang,5400059,228,230
Lang,5500014,147,119
Lang,5800105,3522,3494
Lang,5800106,3522,3494
Lang,5800107,3517,3489
Lang,5800110,3518,3490
Lang,5800113,3512,3484
Lang,5800116,3470,3472
Lang,5900428,2363,2336
Lang,5900430,2360,2333
Lang,6200302,1207,1209
Lang,6200303,1237,1211
Lang,6200397,1207,1209
Lang,6200398,1237,1211
Lang,6200401,1237,1211
Lang,6400011,2886,2888
Lang,6500121,559,561
Lang,6500130,581,557
Lang,6500134,553,555
Lang,6500141,559,561
Lang,6500148,581,557
Lang,6500152,577,553
Lang,6500153,549,551
Lang,6500168,559,561
Lang,6500175,581,557
Lang,6500178,577,553
Lang,6500179,549,551
Lang,6500297,557,559
Math,6,33103,33060
Math,15,14816,14778
Math,16,14734,14696
Math,17,4461,4423
Math,59,15540,15518
Math,100169,11959,11903
Math,100170,11961,11905
Math,100171,11896,11898
Math,100425,11959,11903
Math,100426,11961,11905
Math,100427,11896,11898
Math,300280,1898,1900
Math,400010,14399,14401
Math,400036,14399,14401
Math,600049,33051,33053
Math,600050,33051,33053
Math,600114,33087,33044
Math,600119,33035,33037
Math,600207,33094,33051
Math,601214,33048,33050
Math,1503756,14815,14777
Math,1503757,14817,14779
Math,1503759,14814,14776
Math,1503762,14809,14771
Math,1600423,14816,14778
Math,1600424,14816,14778
Math,1600425,14774,14776
Math,1600634,14816,14778
Math,1600635,14816,14778
Math,1600636,14816,14778
Math,1600637,14774,14776
Math,1701597,4474,4436
Math,1701598,4470,4432
Math,1701599,4474,4436
Math,1701600,4474,4436
Math,1701601,4467,4429
Math,1701602,4465,4427
Math,1900179,13129,13131
Math,1900180,13129,13131
Math,2000763,27988,27947
Math,2100019,20933,20935
Math,2500209,818,820
Math,2600032,11487,11489
Math,2600081,11529,11487
Math,2600085,11524,11482
Math,2900119,13382,13384
Math,2900120,13382,13384
Math,3100025,15286,15288
Math,3100036,15286,15288
Math,3300240,21910,21912
Math,3600237,1066,1068
Math,3600261,1066,1068
Math,3700492,10380,10382
Math,3700497,10379,10381
Math,3700505,10378,10380
Math,3700536,10380,10382
Math,3700541,10379,10381
Math,3700549,10378,10380
Math,3801268,14929,14873
Math,3801269,14929,14873
Math,3801270,14929,14873
Math,3801271,14929,14873
Math,3801272,14929,14873
Math,3801273,14929,14873
Math,3801274,14929,14873
Math,3801275,14929,14873
Math,3801276,14929,14873
Math,3801277,14929,14873
Math,3801278,14929,14873
Math,3801279,14929,14873
Math,4200331,22006,21952
Math,4200335,22002,21948
Math,4200337,21943,21945
Math,4200341,21951,21953
Math,4200342,21951,21953
Math,4300030,10879,10881
Math,4500007,2752,2754
Math,4700032,15194,15149
Math,4700036,15194,15149
Math,4700112,15152,15154
Math,4700113,15152,15154
Math,4800076,15411,15413
Math,5100075,14939,14941
Math,5200595,17655,17657
Math,5200605,17655,17657
Math,5200610,17661,17663
Math,5300076,2783,2785
Math,5400083,15545,15522
Math,5400084,15545,15522
Math,5400085,15545,15522
Math,5400086,15545,15522
Math,5400087,15545,15522
Math,5400088,15545,15522
Math,5400089,15539,15516
Math,5400090,15545,15522
Math,5400091,15545,15522
Math,5402478,15545,15522
Math,5402479,15545,15522
Math,5402480,15545,15522
Math,5402481,15545,15522
Math,5402482,15543,15520
Math,5402483,15545,15522
Math,5402484,15545,15522
Math,5402485,15541,15518
Math,5402486,15545,15522
Math,5402487,15546,15523
Math,5402488,15545,15522
Math,5402489,15545,15522
Math,5402490,15546,15523
Math,5402491,15545,15522
Math,5402492,15545,15522
Math,5402493,15543,15520
Math,5908273,15540,15518
Math,5908274,15538,15516
Math,5908275,15540,15518
Math,5908276,15540,15518
Math,6000054,12525,12527
Math,6000056,12557,12529
Math,6400350,1606,1608
Math,6400351,1605,1607
Math,6400352,1605,1607
Math,6600038,3334,3305
Math,6600039,3334,3305
Math,6600283,3334,3305
Math,6600284,3334,3305
Math,6800356,1628,1630
Math,6800357,1627,1629
Math,6800358,1627,1629
Math,7300030,588,590
Math,7600118,18232,18234
Math,7600242,18232,18234
Math,7800052,954,956
Math,7800057,998,958
Math,7800060,994,954
Math,8100923,16588,16560
Math,8100929,16588,16560
Math,8100931,16543,16545
Math,8200036,5101,5103
Math,8400027,423,425
Math,8600034,4799,4801
Math,8700195,5137,5101
Math,8700197,5095,5097
Math,8700202,5136,5100
Math,8700203,5136,5100
Math,8800279,5094,5096
Math,8800280,5094,5096
Math,9200068,1188,1190
Math,9200083,1222,1190
Math,9200093,1188,1190
Math,9200108,1222,1190
Math,9200141,1222,1190
Math,9200159,1190,1192
Math,9200166,1181,1183
Math,9200171,1175,1177
Math,9300188,988,990
Math,9300193,988,990
Math,9300201,988,990
Math,9400181,918,920
Math,9600183,543,524
Math,9600185,543,524
Math,9700042,565,567
Math,9700043,567,569
Math,9700045,567,569
Math,9900425,1359,1328
Math,9900427,1359,1328
Math,9900430,1321,1323
Math,9900607,1328,1330
Math,10100071,236,218
Math,10100074,229,211
Math,10100080,202,204
Math,10200025,2738,2740
Math,10200038,2745,2747
Math,10300040,764,766
Math,10300042,764,766
Math,10600035,216,218
Math,10600041,216,218
Mockito,100063,3524,3521
Mockito,100064,3524,3521
Mockito,100065,3525,3522
Mockito,100066,3524,3521
Mockito,100067,3524,3521
Mockito,100068,3524,3521
Mockito,100069,3524,3521
Mockito,100070,3524,3521
Mockito,200013,1790,1781
Mockito,400016,2767,2762
Mockito,800012,214,204
Mockito,900001,2931,2925
Mockito,900002,2931,2925
Mockito,1000013,2391,2386
Mockito,1000016,2391,2386
Mockito,1300012,2074,2071
Mockito,1400089,1858,1854
Mockito,1400090,1856,1852
Mockito,1500006,1465,1459
Mockito,1500007,1465,1459
Mockito,1600039,1546,1544
Mockito,1600040,1546,1544
Mockito,1700009,1324,1321
Mockito,1700010,1324,1321
Mockito,1700011,1323,1320
Mockito,1800024,1395,1384
Mockito,1900021,2217,2210
Mockito,1900046,2218,2211
Mockito,1900048,2216,2209
Mockito,1900049,2217,2210
Mockito,1900050,2215,2208
Mockito,1900051,2214,2207
Mockito,1900052,2217,2210
Mockito,1900053,2213,2206
Mockito,1900055,2212,2205
Mockito,1900056,2217,2210
Mockito,2100006,1217,1206
Mockito,2100008,1216,1205
Mockito,2100011,1217,1206
Mockito,2200001,1218,1207
Mockito,2200003,1216,1205
Mockito,2200005,1213,1202
Mockito,2300009,2581,2577
Mockito,2300011,2581,2577
Mockito,2400014,4189,4187
Mockito,2500018,4057,4055
Mockito,2900005,2087,2083
Mockito,3300041,1935,1931
Mockito,3300046,1937,1933
Mockito,3300050,1939,1935
Mockito,3700006,1616,1615
Mockito,3700007,1616,1615
Mockito,3800020,1691,1690
Time,3,12639,12632
Time,7,14350,14338
Time,16,14082,14070
Time,17,8517,8484
Time,19,12307,12299
Time,20,12433,12424
Time,21,8000,7967
Time,25,12149,12141
Time,26,14016,14009
Time,100033,8760,8762
Time,100035,8760,8762
Time,100036,8762,8764
Time,100037,8762,8764
Time,100050,8792,8759
Time,100052,8755,8757
Time,200399,11792,11794
Time,200400,11792,11794
Time,300061,12678,12680
Time,300067,12678,12680
Time,300077,12678,12680
Time,300083,12678,12680
Time,300091,12678,12680
Time,500527,9976,9978
Time,500528,9976,9978
Time,500546,9976,9978
Time,500556,9973,9975
Time,600237,10546,10548
Time,600238,10546,10548
Time,600243,10543,10545
Time,600251,10543,10545
Time,800055,7603,7594
Time,800061,7603,7594
Time,800065,7603,7594
Time,800067,7585,7587
Time,1200010,11300,11268
Time,1200024,11266,11268
Time,1200393,11300,11268
Time,1200407,11266,11268
Time,1300376,11865,11840
Time,1300379,11865,11840
Time,1300380,11831,11833
Time,1400104,14358,14345
Time,1400107,14352,14339
Time,1400110,14358,14345
Time,1400112,14330,14332
Time,1500087,383,385
Time,1700398,8521,8523
Time,1700414,8554,8521
Time,1700416,8554,8521
Time,1700419,8514,8516
Time,1700425,8521,8523
Time,1800065,9255,9223
Time,1800068,9255,9223
Time,1800069,9215,9216
Time,1800072,9225,9227
Time,2001156,12443,12434
Time,2001157,12441,12432
Time,2001162,12434,12436
Time,2100025,8021,7988
Time,2100026,8016,7983
Time,2100029,7977,7979
Time,2100042,7987,7989
Time,2100052,7987,7989
Time,2400071,15390,15392
Time,2500258,12159,12161
Time,2500260,12161,12163
Time,2500266,12171,12163
Time,2500271,12167,12159
Time,2700203,12631,12601
Time,2700204,12631,12601
Time,2700206,12596,12598
